(module potencjometr_3364 (layer F.Cu) (tedit 585194B1)
  (fp_text reference REF** (at 0 0.5) (layer F.SilkS)
    (effects (font (size 1 1) (thickness 0.15)))
  )
  (fp_text value potencjometr_3364 (at 0 -0.5) (layer F.Fab)
    (effects (font (size 1 1) (thickness 0.15)))
  )
  (pad 2 smd rect (at 0 -1.8) (size 2.4 1.1) (layers F.Cu F.Paste F.Mask))
  (pad 1 smd rect (at -1.5 2) (size 1.3 1.5) (layers F.Cu F.Paste F.Mask))
  (pad 3 smd rect (at 1.5 2) (size 1.3 1.5) (layers F.Cu F.Paste F.Mask))
)
