EESchema Schematic File Version 2
LIBS:power
LIBS:device
LIBS:transistors
LIBS:conn
LIBS:linear
LIBS:regul
LIBS:74xx
LIBS:cmos4000
LIBS:adc-dac
LIBS:memory
LIBS:xilinx
LIBS:microcontrollers
LIBS:dsp
LIBS:microchip
LIBS:analog_switches
LIBS:motorola
LIBS:texas
LIBS:intel
LIBS:audio
LIBS:interface
LIBS:digital-audio
LIBS:philips
LIBS:display
LIBS:cypress
LIBS:siliconi
LIBS:opto
LIBS:atmel
LIBS:contrib
LIBS:valves
LIBS:ak8963
LIBS:hc-05
LIBS:mpu-6050
LIBS:scalaki
LIBS:scalaki1
LIBS:st1s10
LIBS:stm32
LIBS:warsztaty
LIBS:pololu_a4988
LIBS:SupernovaLib
LIBS:jobabamb_plus-cache
EELAYER 25 0
EELAYER END
$Descr A4 11693 8268
encoding utf-8
Sheet 1 1
Title ""
Date ""
Rev ""
Comp ""
Comment1 ""
Comment2 ""
Comment3 ""
Comment4 ""
$EndDescr
$Comp
L POLOLU_A4988 U1
U 1 1 58EF67E1
P 7300 1600
F 0 "U1" H 7300 2050 60  0000 C CNN
F 1 "POLOLU_A4988" V 7300 1600 50  0000 C CNN
F 2 "misc:stepstick" H 7300 1600 60  0001 C CNN
F 3 "" H 7300 1600 60  0000 C CNN
	1    7300 1600
	1    0    0    1   
$EndComp
$Comp
L +3V3 #PWR01
U 1 1 58EF711B
P 8300 1750
F 0 "#PWR01" H 8300 1600 50  0001 C CNN
F 1 "+3V3" H 8300 1890 50  0000 C CNN
F 2 "" H 8300 1750 50  0000 C CNN
F 3 "" H 8300 1750 50  0000 C CNN
	1    8300 1750
	1    0    0    -1  
$EndComp
$Comp
L CP C1
U 1 1 58EF7310
P 6300 1150
F 0 "C1" H 6325 1250 50  0000 L CNN
F 1 "100uF" H 6325 1050 50  0000 L CNN
F 2 "Capacitors_Tantalum_SMD:CP_Tantalum_Case-C_EIA-6032-28_Reflow" H 6338 1000 50  0001 C CNN
F 3 "" H 6300 1150 50  0000 C CNN
	1    6300 1150
	1    0    0    -1  
$EndComp
$Comp
L VCC #PWR02
U 1 1 58EF7396
P 6300 900
F 0 "#PWR02" H 6300 750 50  0001 C CNN
F 1 "VCC" H 6300 1050 50  0000 C CNN
F 2 "" H 6300 900 50  0000 C CNN
F 3 "" H 6300 900 50  0000 C CNN
	1    6300 900 
	1    0    0    -1  
$EndComp
$Comp
L CONN_01X04 P4
U 1 1 58EF73D5
P 6500 1600
F 0 "P4" H 6500 1850 50  0000 C CNN
F 1 "stepper_motor" V 6600 1600 50  0000 C CNN
F 2 "Pin_Headers:Pin_Header_Straight_1x04_Pitch2.54mm" H 6500 1600 50  0001 C CNN
F 3 "" H 6500 1600 50  0000 C CNN
	1    6500 1600
	-1   0    0    -1  
$EndComp
$Comp
L +3V3 #PWR03
U 1 1 58EF7459
P 6200 1800
F 0 "#PWR03" H 6200 1650 50  0001 C CNN
F 1 "+3V3" H 6200 1940 50  0000 C CNN
F 2 "" H 6200 1800 50  0000 C CNN
F 3 "" H 6200 1800 50  0000 C CNN
	1    6200 1800
	1    0    0    -1  
$EndComp
$Comp
L GND #PWR04
U 1 1 58EF7498
P 6300 1350
F 0 "#PWR04" H 6300 1100 50  0001 C CNN
F 1 "GND" H 6300 1200 50  0000 C CNN
F 2 "" H 6300 1350 50  0000 C CNN
F 3 "" H 6300 1350 50  0000 C CNN
	1    6300 1350
	1    0    0    -1  
$EndComp
$Comp
L GND #PWR05
U 1 1 58EF74BD
P 6700 1950
F 0 "#PWR05" H 6700 1700 50  0001 C CNN
F 1 "GND" H 6700 1800 50  0000 C CNN
F 2 "" H 6700 1950 50  0000 C CNN
F 3 "" H 6700 1950 50  0000 C CNN
	1    6700 1950
	1    0    0    -1  
$EndComp
$Comp
L +3V3 #PWR06
U 1 1 58EF7573
P 7900 1150
F 0 "#PWR06" H 7900 1000 50  0001 C CNN
F 1 "+3V3" H 7900 1290 50  0000 C CNN
F 2 "" H 7900 1150 50  0000 C CNN
F 3 "" H 7900 1150 50  0000 C CNN
	1    7900 1150
	1    0    0    -1  
$EndComp
Text Label 7900 1850 0    60   ~ 0
step
Text Label 7900 1950 0    60   ~ 0
dir
Wire Wire Line
	7900 1750 8300 1750
Wire Wire Line
	6300 1300 6300 1350
Wire Wire Line
	6300 1350 6700 1350
Wire Wire Line
	6700 1250 6700 950 
Wire Wire Line
	6700 950  6300 950 
Wire Wire Line
	6300 900  6300 1000
Connection ~ 6300 950 
Wire Wire Line
	6700 1850 6200 1850
Wire Wire Line
	6200 1850 6200 1800
Text Label 2700 1350 2    60   ~ 0
PWM_H_BRIDGE1
Text Label 4350 3550 0    60   ~ 0
PWM_H_BRIDGE1
$Comp
L R_Small R2
U 1 1 58F509E0
P 2600 1550
F 0 "R2" H 2630 1570 50  0000 L CNN
F 1 "10k" H 2630 1510 50  0000 L CNN
F 2 "Resistors_SMD:R_0603" H 2600 1550 50  0001 C CNN
F 3 "" H 2600 1550 50  0000 C CNN
	1    2600 1550
	0    1    1    0   
$EndComp
$Comp
L +3V3 #PWR07
U 1 1 58F50BB4
P 2500 1550
F 0 "#PWR07" H 2500 1400 50  0001 C CNN
F 1 "+3V3" H 2500 1690 50  0000 C CNN
F 2 "" H 2500 1550 50  0000 C CNN
F 3 "" H 2500 1550 50  0000 C CNN
	1    2500 1550
	0    -1   -1   0   
$EndComp
$Comp
L VCC #PWR08
U 1 1 58F50E9C
P 1000 2150
F 0 "#PWR08" H 1000 2000 50  0001 C CNN
F 1 "VCC" H 1000 2300 50  0000 C CNN
F 2 "" H 1000 2150 50  0000 C CNN
F 3 "" H 1000 2150 50  0000 C CNN
	1    1000 2150
	1    0    0    -1  
$EndComp
Text Label 2650 2150 2    60   ~ 0
OUT11
$Comp
L GND #PWR09
U 1 1 58F518E5
P 2550 2450
F 0 "#PWR09" H 2550 2200 50  0001 C CNN
F 1 "GND" H 2550 2300 50  0000 C CNN
F 2 "" H 2550 2450 50  0000 C CNN
F 3 "" H 2550 2450 50  0000 C CNN
	1    2550 2450
	1    0    0    -1  
$EndComp
$Comp
L C_Small C8
U 1 1 58F51B8C
P 2150 2950
F 0 "C8" H 2160 3020 50  0000 L CNN
F 1 "33nF" H 2160 2870 50  0000 L CNN
F 2 "Capacitors_SMD:C_0603" H 2150 2950 50  0001 C CNN
F 3 "" H 2150 2950 50  0000 C CNN
	1    2150 2950
	1    0    0    1   
$EndComp
Wire Wire Line
	1300 2800 1300 2750
$Comp
L VCC #PWR010
U 1 1 58F51DEF
P 1300 2750
F 0 "#PWR010" H 1300 2600 50  0001 C CNN
F 1 "VCC" H 1300 2900 50  0000 C CNN
F 2 "" H 1300 2750 50  0000 C CNN
F 3 "" H 1300 2750 50  0000 C CNN
	1    1300 2750
	1    0    0    -1  
$EndComp
Text Label 4400 1550 0    60   ~ 0
IN11
Text Label 2650 3450 2    60   ~ 0
IN12
$Comp
L R_Small R5
U 1 1 58F52155
P 2300 3400
F 0 "R5" H 2330 3420 50  0000 L CNN
F 1 "10k" H 2330 3360 50  0000 L CNN
F 2 "Resistors_SMD:R_0603" H 2300 3400 50  0001 C CNN
F 3 "" H 2300 3400 50  0000 C CNN
	1    2300 3400
	-1   0    0    1   
$EndComp
$Comp
L +3V3 #PWR011
U 1 1 58F52219
P 2300 3300
F 0 "#PWR011" H 2300 3150 50  0001 C CNN
F 1 "+3V3" H 2300 3440 50  0000 C CNN
F 2 "" H 2300 3300 50  0000 C CNN
F 3 "" H 2300 3300 50  0000 C CNN
	1    2300 3300
	1    0    0    -1  
$EndComp
$Comp
L R_Small R6
U 1 1 58F53026
P 5200 3600
F 0 "R6" H 5230 3620 50  0000 L CNN
F 1 "270R" H 5230 3560 50  0000 L CNN
F 2 "Resistors_SMD:R_0603" H 5200 3600 50  0001 C CNN
F 3 "" H 5200 3600 50  0000 C CNN
	1    5200 3600
	1    0    0    1   
$EndComp
$Comp
L C_Small C9
U 1 1 58F5317A
P 5500 3600
F 0 "C9" H 5510 3670 50  0000 L CNN
F 1 "100nF" H 5510 3520 50  0000 L CNN
F 2 "Capacitors_SMD:C_0603" H 5500 3600 50  0001 C CNN
F 3 "" H 5500 3600 50  0000 C CNN
	1    5500 3600
	1    0    0    -1  
$EndComp
Connection ~ 5500 3450
$Comp
L GND #PWR012
U 1 1 58F535E3
P 5500 3800
F 0 "#PWR012" H 5500 3550 50  0001 C CNN
F 1 "GND" H 5500 3650 50  0000 C CNN
F 2 "" H 5500 3800 50  0000 C CNN
F 3 "" H 5500 3800 50  0000 C CNN
	1    5500 3800
	-1   0    0    -1  
$EndComp
Wire Wire Line
	5500 3750 5200 3750
Wire Wire Line
	5500 3700 5500 3800
Connection ~ 5500 3750
Wire Wire Line
	5200 3750 5200 3700
Wire Wire Line
	5200 3450 5200 3500
Connection ~ 5200 3450
$Comp
L CP_Small C7
U 1 1 58F53EA5
P 1300 2900
F 0 "C7" H 1310 2970 50  0000 L CNN
F 1 "100uF" H 1310 2820 50  0000 L CNN
F 2 "Capacitors_Tantalum_SMD:CP_Tantalum_Case-C_EIA-6032-28_Reflow" H 1300 2900 50  0001 C CNN
F 3 "" H 1300 2900 50  0000 C CNN
	1    1300 2900
	-1   0    0    -1  
$EndComp
Wire Wire Line
	1600 2200 1000 2200
Wire Wire Line
	1000 2200 1000 2150
$Comp
L CP_Small C4
U 1 1 58F54D0A
P 1000 2300
F 0 "C4" H 1010 2370 50  0000 L CNN
F 1 "100uF" H 1010 2220 50  0000 L CNN
F 2 "Capacitors_Tantalum_SMD:CP_Tantalum_Case-C_EIA-6032-28_Reflow" H 1000 2300 50  0001 C CNN
F 3 "" H 1000 2300 50  0000 C CNN
	1    1000 2300
	-1   0    0    -1  
$EndComp
$Comp
L C_Small C5
U 1 1 58F54D92
P 1250 2300
F 0 "C5" H 1260 2370 50  0000 L CNN
F 1 "100nF" H 1260 2220 50  0000 L CNN
F 2 "Capacitors_SMD:C_0603" H 1250 2300 50  0001 C CNN
F 3 "" H 1250 2300 50  0000 C CNN
	1    1250 2300
	-1   0    0    -1  
$EndComp
Wire Wire Line
	1250 2400 1000 2400
$Comp
L GND #PWR013
U 1 1 58F55043
P 1000 2400
F 0 "#PWR013" H 1000 2150 50  0001 C CNN
F 1 "GND" H 1000 2250 50  0000 C CNN
F 2 "" H 1000 2400 50  0000 C CNN
F 3 "" H 1000 2400 50  0000 C CNN
	1    1000 2400
	1    0    0    -1  
$EndComp
$Comp
L GND #PWR014
U 1 1 58F550AB
P 1300 3000
F 0 "#PWR014" H 1300 2750 50  0001 C CNN
F 1 "GND" H 1300 2850 50  0000 C CNN
F 2 "" H 1300 3000 50  0000 C CNN
F 3 "" H 1300 3000 50  0000 C CNN
	1    1300 3000
	1    0    0    -1  
$EndComp
$Comp
L C_Small C6
U 1 1 58F55381
P 1000 2900
F 0 "C6" H 1010 2970 50  0000 L CNN
F 1 "100nF" H 1010 2820 50  0000 L CNN
F 2 "Capacitors_SMD:C_0603" H 1000 2900 50  0001 C CNN
F 3 "" H 1000 2900 50  0000 C CNN
	1    1000 2900
	-1   0    0    -1  
$EndComp
Connection ~ 1300 2800
Wire Wire Line
	1000 3000 1300 3000
$Comp
L R_Small R1
U 1 1 58F5665E
P 4750 1200
F 0 "R1" H 4780 1220 50  0000 L CNN
F 1 "10k" H 4780 1160 50  0000 L CNN
F 2 "Resistors_SMD:R_0603" H 4750 1200 50  0001 C CNN
F 3 "" H 4750 1200 50  0000 C CNN
	1    4750 1200
	1    0    0    -1  
$EndComp
$Comp
L +3V3 #PWR015
U 1 1 58F56725
P 4750 1050
F 0 "#PWR015" H 4750 900 50  0001 C CNN
F 1 "+3V3" H 4750 1190 50  0000 C CNN
F 2 "" H 4750 1050 50  0000 C CNN
F 3 "" H 4750 1050 50  0000 C CNN
	1    4750 1050
	1    0    0    -1  
$EndComp
$Comp
L C_Small C2
U 1 1 58F56828
P 4900 1750
F 0 "C2" H 4910 1820 50  0000 L CNN
F 1 "33nF" H 4910 1670 50  0000 L CNN
F 2 "Capacitors_SMD:C_0603" H 4900 1750 50  0001 C CNN
F 3 "" H 4900 1750 50  0000 C CNN
	1    4900 1750
	-1   0    0    -1  
$EndComp
Text Label 4400 2150 0    60   ~ 0
OUT12
$Comp
L GND #PWR016
U 1 1 58F595BC
P 4500 2450
F 0 "#PWR016" H 4500 2200 50  0001 C CNN
F 1 "GND" H 4500 2300 50  0000 C CNN
F 2 "" H 4500 2450 50  0000 C CNN
F 3 "" H 4500 2450 50  0000 C CNN
	1    4500 2450
	1    0    0    -1  
$EndComp
$Comp
L R_Small R4
U 1 1 58F59A23
P 4550 3250
F 0 "R4" H 4580 3270 50  0000 L CNN
F 1 "10k" H 4600 3100 50  0000 L CNN
F 2 "Resistors_SMD:R_0603" H 4550 3250 50  0001 C CNN
F 3 "" H 4550 3250 50  0000 C CNN
	1    4550 3250
	-1   0    0    1   
$EndComp
$Comp
L +3V3 #PWR017
U 1 1 58F59B9D
P 4550 3150
F 0 "#PWR017" H 4550 3000 50  0001 C CNN
F 1 "+3V3" H 4550 3290 50  0000 C CNN
F 2 "" H 4550 3150 50  0000 C CNN
F 3 "" H 4550 3150 50  0000 C CNN
	1    4550 3150
	1    0    0    -1  
$EndComp
$Comp
L CONN_01X02 P5
U 1 1 58F5F079
P 1050 3400
F 0 "P5" H 1050 3550 50  0000 C CNN
F 1 "MOTOR1" V 1150 3400 50  0000 C CNN
F 2 "Terminal_Blocks:TerminalBlock_Pheonix_MKDS1.5-2pol" H 1050 3400 50  0001 C CNN
F 3 "" H 1050 3400 50  0000 C CNN
	1    1050 3400
	1    0    0    -1  
$EndComp
Text Label 850  3350 2    60   ~ 0
OUT11
Text Label 850  3450 2    60   ~ 0
OUT12
$Comp
L CONN_01X02 P6
U 1 1 58F606DF
P 1050 6850
F 0 "P6" H 1050 7000 50  0000 C CNN
F 1 "MOTOR1" V 1150 6850 50  0000 C CNN
F 2 "Terminal_Blocks:TerminalBlock_Pheonix_MKDS1.5-2pol" H 1050 6850 50  0001 C CNN
F 3 "" H 1050 6850 50  0000 C CNN
	1    1050 6850
	1    0    0    -1  
$EndComp
Text Label 850  6800 2    60   ~ 0
OUT21
Text Label 850  6900 2    60   ~ 0
OUT22
$Comp
L nucleo-L476RG U3
U 1 1 58F68333
P 8800 4450
F 0 "U3" H 9150 4350 60  0000 C CNN
F 1 "nucleo-L476RG" H 8850 4450 60  0000 C CNN
F 2 "misc:nucleo-L476RG" H 8950 4600 60  0001 C CNN
F 3 "" H 8950 4600 60  0000 C CNN
	1    8800 4450
	1    0    0    -1  
$EndComp
$Comp
L R_Small R3
U 1 1 58F6DBCD
P 1750 1600
F 0 "R3" H 1780 1620 50  0000 L CNN
F 1 "270R" H 1780 1560 50  0000 L CNN
F 2 "Resistors_SMD:R_0603" H 1750 1600 50  0001 C CNN
F 3 "" H 1750 1600 50  0000 C CNN
	1    1750 1600
	-1   0    0    1   
$EndComp
$Comp
L C_Small C3
U 1 1 58F6DBD3
P 1450 1600
F 0 "C3" H 1460 1670 50  0000 L CNN
F 1 "100nF" H 1460 1520 50  0000 L CNN
F 2 "Capacitors_SMD:C_0603" H 1450 1600 50  0001 C CNN
F 3 "" H 1450 1600 50  0000 C CNN
	1    1450 1600
	-1   0    0    -1  
$EndComp
Connection ~ 1450 1450
$Comp
L GND #PWR018
U 1 1 58F6DBE1
P 1450 1800
F 0 "#PWR018" H 1450 1550 50  0001 C CNN
F 1 "GND" H 1450 1650 50  0000 C CNN
F 2 "" H 1450 1800 50  0000 C CNN
F 3 "" H 1450 1800 50  0000 C CNN
	1    1450 1800
	1    0    0    -1  
$EndComp
Wire Wire Line
	1450 1750 1750 1750
Wire Wire Line
	1450 1700 1450 1800
Connection ~ 1450 1750
Wire Wire Line
	1750 1750 1750 1700
Wire Wire Line
	1750 1450 1750 1500
Connection ~ 1750 1450
Wire Wire Line
	1350 1450 2700 1450
Wire Wire Line
	1450 1450 1450 1500
Wire Wire Line
	5500 3450 5500 3500
Text Label 1350 1350 0    60   ~ 0
FBA1
Text Label 5900 3350 2    60   ~ 0
FBB1
Wire Wire Line
	7900 1650 7900 1750
$Comp
L CONN_01X03 P1
U 1 1 58F73490
P 8150 750
F 0 "P1" H 8150 950 50  0000 C CNN
F 1 "MS1" V 8250 750 50  0000 C CNN
F 2 "Pin_Headers:Pin_Header_Straight_1x03_Pitch2.54mm" H 8150 750 50  0001 C CNN
F 3 "" H 8150 750 50  0000 C CNN
	1    8150 750 
	0    -1   -1   0   
$EndComp
$Comp
L CONN_01X03 P2
U 1 1 58F73540
P 8550 750
F 0 "P2" H 8550 950 50  0000 C CNN
F 1 "MS2" V 8650 750 50  0000 C CNN
F 2 "Pin_Headers:Pin_Header_Straight_1x03_Pitch2.54mm" H 8550 750 50  0001 C CNN
F 3 "" H 8550 750 50  0000 C CNN
	1    8550 750 
	0    -1   -1   0   
$EndComp
$Comp
L CONN_01X03 P3
U 1 1 58F735D2
P 8950 750
F 0 "P3" H 8950 950 50  0000 C CNN
F 1 "MS3" V 9050 750 50  0000 C CNN
F 2 "Pin_Headers:Pin_Header_Straight_1x03_Pitch2.54mm" H 8950 750 50  0001 C CNN
F 3 "" H 8950 750 50  0000 C CNN
	1    8950 750 
	0    -1   -1   0   
$EndComp
Wire Wire Line
	8150 950  8150 1350
Wire Wire Line
	8150 1350 7900 1350
Wire Wire Line
	8550 950  8550 1450
Wire Wire Line
	8550 1450 7900 1450
$Comp
L +3V3 #PWR019
U 1 1 58F73A32
P 8250 950
F 0 "#PWR019" H 8250 800 50  0001 C CNN
F 1 "+3V3" H 8250 1090 50  0000 C CNN
F 2 "" H 8250 950 50  0000 C CNN
F 3 "" H 8250 950 50  0000 C CNN
	1    8250 950 
	-1   0    0    1   
$EndComp
Wire Wire Line
	7900 1150 7900 1250
$Comp
L +3V3 #PWR020
U 1 1 58F73BF4
P 8650 950
F 0 "#PWR020" H 8650 800 50  0001 C CNN
F 1 "+3V3" H 8650 1090 50  0000 C CNN
F 2 "" H 8650 950 50  0000 C CNN
F 3 "" H 8650 950 50  0000 C CNN
	1    8650 950 
	-1   0    0    1   
$EndComp
$Comp
L +3V3 #PWR021
U 1 1 58F73C74
P 9050 950
F 0 "#PWR021" H 9050 800 50  0001 C CNN
F 1 "+3V3" H 9050 1090 50  0000 C CNN
F 2 "" H 9050 950 50  0000 C CNN
F 3 "" H 9050 950 50  0000 C CNN
	1    9050 950 
	-1   0    0    1   
$EndComp
Wire Wire Line
	8950 950  8950 1550
Wire Wire Line
	8950 1550 7900 1550
$Comp
L GND #PWR022
U 1 1 58F73E08
P 8050 950
F 0 "#PWR022" H 8050 700 50  0001 C CNN
F 1 "GND" H 8050 800 50  0000 C CNN
F 2 "" H 8050 950 50  0000 C CNN
F 3 "" H 8050 950 50  0000 C CNN
	1    8050 950 
	1    0    0    -1  
$EndComp
$Comp
L GND #PWR023
U 1 1 58F73E88
P 8450 950
F 0 "#PWR023" H 8450 700 50  0001 C CNN
F 1 "GND" H 8450 800 50  0000 C CNN
F 2 "" H 8450 950 50  0000 C CNN
F 3 "" H 8450 950 50  0000 C CNN
	1    8450 950 
	1    0    0    -1  
$EndComp
$Comp
L GND #PWR024
U 1 1 58F73F08
P 8850 950
F 0 "#PWR024" H 8850 700 50  0001 C CNN
F 1 "GND" H 8850 800 50  0000 C CNN
F 2 "" H 8850 950 50  0000 C CNN
F 3 "" H 8850 950 50  0000 C CNN
	1    8850 950 
	1    0    0    -1  
$EndComp
$Comp
L mc33932_soic54 U2
U 1 1 58F76B9B
P 3550 2450
F 0 "U2" H 4100 3900 60  0000 C CNN
F 1 "mc33932_soic54" H 3750 950 60  0000 C CNN
F 2 "misc:soic-54" H 3550 2450 60  0001 C CNN
F 3 "" H 3550 2450 60  0000 C CNN
	1    3550 2450
	1    0    0    -1  
$EndComp
Text Label 1600 2200 0    60   ~ 0
VPWRA1
Text Label 2700 1150 2    60   ~ 0
VPWRA1
Wire Wire Line
	2700 2050 2700 2150
Wire Wire Line
	2700 2150 2650 2150
Wire Wire Line
	4350 2750 4350 2850
Wire Wire Line
	4350 2850 4450 2850
Text Label 4450 2850 0    60   ~ 0
OUT11
Wire Wire Line
	4350 2050 4350 2150
Wire Wire Line
	4350 2150 4400 2150
Text Label 2650 2850 2    60   ~ 0
OUT12
Wire Wire Line
	2650 2850 2700 2850
Wire Wire Line
	2700 2850 2700 2750
Wire Wire Line
	2550 2450 2650 2450
Wire Wire Line
	2650 2250 2650 2650
Wire Wire Line
	2650 2550 2700 2550
Wire Wire Line
	2650 2650 2700 2650
Connection ~ 2650 2550
Wire Wire Line
	2650 2350 2700 2350
Connection ~ 2650 2450
Wire Wire Line
	2650 2250 2700 2250
Connection ~ 2650 2350
Wire Wire Line
	4400 2650 4350 2650
Wire Wire Line
	4400 2250 4400 2650
Wire Wire Line
	4400 2550 4350 2550
Wire Wire Line
	4400 2350 4350 2350
Connection ~ 4400 2550
Wire Wire Line
	4400 2250 4350 2250
Connection ~ 4400 2350
Wire Wire Line
	4400 2450 4500 2450
Connection ~ 4400 2450
Wire Wire Line
	4750 1050 4750 1100
Wire Wire Line
	4350 1350 4750 1350
Wire Wire Line
	4750 1350 4750 1300
Text Label 1600 2800 2    60   ~ 0
VPWRB1
Wire Wire Line
	1600 2800 1000 2800
Text Label 2700 2950 2    60   ~ 0
VPWRB1
Wire Wire Line
	2150 3050 2700 3050
$Comp
L VCC #PWR025
U 1 1 58F7CBFE
P 2150 2850
F 0 "#PWR025" H 2150 2700 50  0001 C CNN
F 1 "VCC" H 2150 3000 50  0000 C CNN
F 2 "" H 2150 2850 50  0000 C CNN
F 3 "" H 2150 2850 50  0000 C CNN
	1    2150 2850
	1    0    0    -1  
$EndComp
Wire Wire Line
	4350 1850 4900 1850
Wire Wire Line
	4350 1450 4350 1550
Wire Wire Line
	4350 1550 4400 1550
Wire Wire Line
	2700 3350 2700 3450
Wire Wire Line
	2700 3450 2650 3450
Wire Wire Line
	4350 3350 4550 3350
Wire Wire Line
	4350 3450 5900 3450
Wire Wire Line
	2300 3500 2300 3550
Wire Wire Line
	2300 3550 2700 3550
Wire Wire Line
	3550 2650 3550 2700
$Comp
L GND #PWR026
U 1 1 58F81F9C
P 4350 1100
F 0 "#PWR026" H 4350 850 50  0001 C CNN
F 1 "GND" H 4350 950 50  0000 C CNN
F 2 "" H 4350 1100 50  0000 C CNN
F 3 "" H 4350 1100 50  0000 C CNN
	1    4350 1100
	-1   0    0    1   
$EndComp
Wire Wire Line
	4350 1150 4350 1100
$Comp
L GND #PWR027
U 1 1 58F822B4
P 2700 3800
F 0 "#PWR027" H 2700 3550 50  0001 C CNN
F 1 "GND" H 2700 3650 50  0000 C CNN
F 2 "" H 2700 3800 50  0000 C CNN
F 3 "" H 2700 3800 50  0000 C CNN
	1    2700 3800
	1    0    0    -1  
$EndComp
Wire Wire Line
	2700 3750 2700 3800
$Comp
L VCC #PWR028
U 1 1 58F829EE
P 4900 1650
F 0 "#PWR028" H 4900 1500 50  0001 C CNN
F 1 "VCC" H 4900 1800 50  0000 C CNN
F 2 "" H 4900 1650 50  0000 C CNN
F 3 "" H 4900 1650 50  0000 C CNN
	1    4900 1650
	1    0    0    -1  
$EndComp
Text Label 2650 4500 2    60   ~ 0
PWM_H_BRIDGE2
Text Label 4300 6700 0    60   ~ 0
PWM_H_BRIDGE2
$Comp
L R_Small R8
U 1 1 58F83F21
P 2550 4700
F 0 "R8" H 2580 4720 50  0000 L CNN
F 1 "10k" H 2580 4660 50  0000 L CNN
F 2 "Resistors_SMD:R_0603" H 2550 4700 50  0001 C CNN
F 3 "" H 2550 4700 50  0000 C CNN
	1    2550 4700
	0    1    1    0   
$EndComp
$Comp
L +3V3 #PWR029
U 1 1 58F83F27
P 2450 4700
F 0 "#PWR029" H 2450 4550 50  0001 C CNN
F 1 "+3V3" H 2450 4840 50  0000 C CNN
F 2 "" H 2450 4700 50  0000 C CNN
F 3 "" H 2450 4700 50  0000 C CNN
	1    2450 4700
	0    -1   -1   0   
$EndComp
$Comp
L VCC #PWR030
U 1 1 58F83F2D
P 950 5300
F 0 "#PWR030" H 950 5150 50  0001 C CNN
F 1 "VCC" H 950 5450 50  0000 C CNN
F 2 "" H 950 5300 50  0000 C CNN
F 3 "" H 950 5300 50  0000 C CNN
	1    950  5300
	1    0    0    -1  
$EndComp
Text Label 2600 5300 2    60   ~ 0
OUT21
$Comp
L GND #PWR031
U 1 1 58F83F34
P 2500 5600
F 0 "#PWR031" H 2500 5350 50  0001 C CNN
F 1 "GND" H 2500 5450 50  0000 C CNN
F 2 "" H 2500 5600 50  0000 C CNN
F 3 "" H 2500 5600 50  0000 C CNN
	1    2500 5600
	1    0    0    -1  
$EndComp
$Comp
L C_Small C16
U 1 1 58F83F3A
P 2100 6100
F 0 "C16" H 2110 6170 50  0000 L CNN
F 1 "33nF" H 2110 6020 50  0000 L CNN
F 2 "Capacitors_SMD:C_0603" H 2100 6100 50  0001 C CNN
F 3 "" H 2100 6100 50  0000 C CNN
	1    2100 6100
	1    0    0    1   
$EndComp
Wire Wire Line
	1250 5950 1250 5900
$Comp
L VCC #PWR032
U 1 1 58F83F41
P 1250 5900
F 0 "#PWR032" H 1250 5750 50  0001 C CNN
F 1 "VCC" H 1250 6050 50  0000 C CNN
F 2 "" H 1250 5900 50  0000 C CNN
F 3 "" H 1250 5900 50  0000 C CNN
	1    1250 5900
	1    0    0    -1  
$EndComp
Text Label 4350 4700 0    60   ~ 0
IN21
Text Label 2600 6600 2    60   ~ 0
IN22
$Comp
L R_Small R11
U 1 1 58F83F49
P 2250 6550
F 0 "R11" H 2280 6570 50  0000 L CNN
F 1 "10k" H 2280 6510 50  0000 L CNN
F 2 "Resistors_SMD:R_0603" H 2250 6550 50  0001 C CNN
F 3 "" H 2250 6550 50  0000 C CNN
	1    2250 6550
	-1   0    0    1   
$EndComp
$Comp
L +3V3 #PWR033
U 1 1 58F83F4F
P 2250 6450
F 0 "#PWR033" H 2250 6300 50  0001 C CNN
F 1 "+3V3" H 2250 6590 50  0000 C CNN
F 2 "" H 2250 6450 50  0000 C CNN
F 3 "" H 2250 6450 50  0000 C CNN
	1    2250 6450
	1    0    0    -1  
$EndComp
$Comp
L R_Small R12
U 1 1 58F83F55
P 5150 6750
F 0 "R12" H 5180 6770 50  0000 L CNN
F 1 "270R" H 5180 6710 50  0000 L CNN
F 2 "Resistors_SMD:R_0603" H 5150 6750 50  0001 C CNN
F 3 "" H 5150 6750 50  0000 C CNN
	1    5150 6750
	1    0    0    1   
$EndComp
$Comp
L C_Small C17
U 1 1 58F83F5B
P 5450 6750
F 0 "C17" H 5460 6820 50  0000 L CNN
F 1 "100nF" H 5460 6670 50  0000 L CNN
F 2 "Capacitors_SMD:C_0603" H 5450 6750 50  0001 C CNN
F 3 "" H 5450 6750 50  0000 C CNN
	1    5450 6750
	1    0    0    -1  
$EndComp
Connection ~ 5450 6600
$Comp
L GND #PWR034
U 1 1 58F83F62
P 5450 6950
F 0 "#PWR034" H 5450 6700 50  0001 C CNN
F 1 "GND" H 5450 6800 50  0000 C CNN
F 2 "" H 5450 6950 50  0000 C CNN
F 3 "" H 5450 6950 50  0000 C CNN
	1    5450 6950
	-1   0    0    -1  
$EndComp
Wire Wire Line
	5450 6900 5150 6900
Wire Wire Line
	5450 6850 5450 6950
Connection ~ 5450 6900
Wire Wire Line
	5150 6900 5150 6850
Wire Wire Line
	5150 6600 5150 6650
Connection ~ 5150 6600
$Comp
L CP_Small C15
U 1 1 58F83F6E
P 1250 6050
F 0 "C15" H 1260 6120 50  0000 L CNN
F 1 "100uF" H 1260 5970 50  0000 L CNN
F 2 "Capacitors_Tantalum_SMD:CP_Tantalum_Case-C_EIA-6032-28_Reflow" H 1250 6050 50  0001 C CNN
F 3 "" H 1250 6050 50  0000 C CNN
	1    1250 6050
	-1   0    0    -1  
$EndComp
Wire Wire Line
	1550 5350 950  5350
Wire Wire Line
	950  5350 950  5300
$Comp
L CP_Small C12
U 1 1 58F83F76
P 950 5450
F 0 "C12" H 960 5520 50  0000 L CNN
F 1 "100uF" H 960 5370 50  0000 L CNN
F 2 "Capacitors_Tantalum_SMD:CP_Tantalum_Case-C_EIA-6032-28_Reflow" H 950 5450 50  0001 C CNN
F 3 "" H 950 5450 50  0000 C CNN
	1    950  5450
	-1   0    0    -1  
$EndComp
$Comp
L C_Small C13
U 1 1 58F83F7C
P 1200 5450
F 0 "C13" H 1210 5520 50  0000 L CNN
F 1 "100nF" H 1210 5370 50  0000 L CNN
F 2 "Capacitors_SMD:C_0603" H 1200 5450 50  0001 C CNN
F 3 "" H 1200 5450 50  0000 C CNN
	1    1200 5450
	-1   0    0    -1  
$EndComp
Wire Wire Line
	1200 5550 950  5550
$Comp
L GND #PWR035
U 1 1 58F83F83
P 950 5550
F 0 "#PWR035" H 950 5300 50  0001 C CNN
F 1 "GND" H 950 5400 50  0000 C CNN
F 2 "" H 950 5550 50  0000 C CNN
F 3 "" H 950 5550 50  0000 C CNN
	1    950  5550
	1    0    0    -1  
$EndComp
$Comp
L GND #PWR036
U 1 1 58F83F89
P 1250 6150
F 0 "#PWR036" H 1250 5900 50  0001 C CNN
F 1 "GND" H 1250 6000 50  0000 C CNN
F 2 "" H 1250 6150 50  0000 C CNN
F 3 "" H 1250 6150 50  0000 C CNN
	1    1250 6150
	1    0    0    -1  
$EndComp
$Comp
L C_Small C14
U 1 1 58F83F8F
P 950 6050
F 0 "C14" H 960 6120 50  0000 L CNN
F 1 "100nF" H 960 5970 50  0000 L CNN
F 2 "Capacitors_SMD:C_0603" H 950 6050 50  0001 C CNN
F 3 "" H 950 6050 50  0000 C CNN
	1    950  6050
	-1   0    0    -1  
$EndComp
Connection ~ 1250 5950
Wire Wire Line
	950  6150 1250 6150
$Comp
L R_Small R7
U 1 1 58F83F97
P 4700 4350
F 0 "R7" H 4730 4370 50  0000 L CNN
F 1 "10k" H 4730 4310 50  0000 L CNN
F 2 "Resistors_SMD:R_0603" H 4700 4350 50  0001 C CNN
F 3 "" H 4700 4350 50  0000 C CNN
	1    4700 4350
	1    0    0    -1  
$EndComp
$Comp
L +3V3 #PWR037
U 1 1 58F83F9D
P 4700 4200
F 0 "#PWR037" H 4700 4050 50  0001 C CNN
F 1 "+3V3" H 4700 4340 50  0000 C CNN
F 2 "" H 4700 4200 50  0000 C CNN
F 3 "" H 4700 4200 50  0000 C CNN
	1    4700 4200
	1    0    0    -1  
$EndComp
$Comp
L C_Small C11
U 1 1 58F83FA3
P 4850 4900
F 0 "C11" H 4860 4970 50  0000 L CNN
F 1 "33nF" H 4860 4820 50  0000 L CNN
F 2 "Capacitors_SMD:C_0603" H 4850 4900 50  0001 C CNN
F 3 "" H 4850 4900 50  0000 C CNN
	1    4850 4900
	-1   0    0    -1  
$EndComp
Text Label 4350 5300 0    60   ~ 0
OUT22
$Comp
L GND #PWR038
U 1 1 58F83FAA
P 4450 5600
F 0 "#PWR038" H 4450 5350 50  0001 C CNN
F 1 "GND" H 4450 5450 50  0000 C CNN
F 2 "" H 4450 5600 50  0000 C CNN
F 3 "" H 4450 5600 50  0000 C CNN
	1    4450 5600
	1    0    0    -1  
$EndComp
$Comp
L R_Small R10
U 1 1 58F83FB0
P 4500 6400
F 0 "R10" H 4530 6420 50  0000 L CNN
F 1 "10k" H 4550 6250 50  0000 L CNN
F 2 "Resistors_SMD:R_0603" H 4500 6400 50  0001 C CNN
F 3 "" H 4500 6400 50  0000 C CNN
	1    4500 6400
	-1   0    0    1   
$EndComp
$Comp
L +3V3 #PWR039
U 1 1 58F83FB6
P 4500 6300
F 0 "#PWR039" H 4500 6150 50  0001 C CNN
F 1 "+3V3" H 4500 6440 50  0000 C CNN
F 2 "" H 4500 6300 50  0000 C CNN
F 3 "" H 4500 6300 50  0000 C CNN
	1    4500 6300
	1    0    0    -1  
$EndComp
$Comp
L R_Small R9
U 1 1 58F83FBC
P 1700 4750
F 0 "R9" H 1730 4770 50  0000 L CNN
F 1 "270R" H 1730 4710 50  0000 L CNN
F 2 "Resistors_SMD:R_0603" H 1700 4750 50  0001 C CNN
F 3 "" H 1700 4750 50  0000 C CNN
	1    1700 4750
	-1   0    0    1   
$EndComp
$Comp
L C_Small C10
U 1 1 58F83FC2
P 1400 4750
F 0 "C10" H 1410 4820 50  0000 L CNN
F 1 "100nF" H 1410 4670 50  0000 L CNN
F 2 "Capacitors_SMD:C_0603" H 1400 4750 50  0001 C CNN
F 3 "" H 1400 4750 50  0000 C CNN
	1    1400 4750
	-1   0    0    -1  
$EndComp
Connection ~ 1400 4600
$Comp
L GND #PWR040
U 1 1 58F83FC9
P 1400 4950
F 0 "#PWR040" H 1400 4700 50  0001 C CNN
F 1 "GND" H 1400 4800 50  0000 C CNN
F 2 "" H 1400 4950 50  0000 C CNN
F 3 "" H 1400 4950 50  0000 C CNN
	1    1400 4950
	1    0    0    -1  
$EndComp
Wire Wire Line
	1400 4900 1700 4900
Wire Wire Line
	1400 4850 1400 4950
Connection ~ 1400 4900
Wire Wire Line
	1700 4900 1700 4850
Wire Wire Line
	1700 4600 1700 4650
Connection ~ 1700 4600
Wire Wire Line
	1150 4600 2650 4600
Wire Wire Line
	1400 4600 1400 4650
Wire Wire Line
	5450 6600 5450 6650
Text Label 1150 4500 0    60   ~ 0
FBA2
Text Label 5700 6500 2    60   ~ 0
FBB2
$Comp
L mc33932_soic54 U4
U 1 1 58F83FDA
P 3500 5600
F 0 "U4" H 4050 7050 60  0000 C CNN
F 1 "mc33932_soic54" H 3700 4100 60  0000 C CNN
F 2 "misc:soic-54" H 3500 5600 60  0001 C CNN
F 3 "" H 3500 5600 60  0000 C CNN
	1    3500 5600
	1    0    0    -1  
$EndComp
Text Label 1550 5350 0    60   ~ 0
VPWRA2
Text Label 2650 5100 2    60   ~ 0
VPWRA2
Text Label 4300 5100 0    60   ~ 0
VPWRA2
Text Label 4300 4400 0    60   ~ 0
VPWRA2
Text Label 2650 4300 2    60   ~ 0
VPWRA2
Wire Wire Line
	2650 5200 2650 5300
Wire Wire Line
	2650 5300 2600 5300
Wire Wire Line
	4300 5900 4300 6000
Wire Wire Line
	4300 6000 4400 6000
Text Label 4400 6000 0    60   ~ 0
OUT21
Wire Wire Line
	4300 5200 4300 5300
Wire Wire Line
	4300 5300 4350 5300
Text Label 2600 6000 2    60   ~ 0
OUT22
Wire Wire Line
	2600 6000 2650 6000
Wire Wire Line
	2650 6000 2650 5900
Wire Wire Line
	2500 5600 2600 5600
Wire Wire Line
	2600 5400 2600 5800
Wire Wire Line
	2600 5700 2650 5700
Wire Wire Line
	2600 5800 2650 5800
Connection ~ 2600 5700
Wire Wire Line
	2600 5500 2650 5500
Connection ~ 2600 5600
Wire Wire Line
	2600 5400 2650 5400
Connection ~ 2600 5500
Wire Wire Line
	4350 5800 4300 5800
Wire Wire Line
	4350 5400 4350 5800
Wire Wire Line
	4350 5700 4300 5700
Wire Wire Line
	4350 5500 4300 5500
Connection ~ 4350 5700
Wire Wire Line
	4350 5400 4300 5400
Connection ~ 4350 5500
Wire Wire Line
	4350 5600 4450 5600
Connection ~ 4350 5600
Wire Wire Line
	4700 4200 4700 4250
Wire Wire Line
	4300 4500 4700 4500
Wire Wire Line
	4700 4500 4700 4450
Text Label 1550 5950 0    60   ~ 0
VPWRB2
Wire Wire Line
	1550 5950 950  5950
Text Label 2650 6100 2    60   ~ 0
VPWRB2
Text Label 2650 6800 2    60   ~ 0
VPWRB2
Text Label 4300 6900 0    60   ~ 0
VPWRB2
Text Label 4300 6100 0    60   ~ 0
VPWRB2
Wire Wire Line
	2100 6200 2650 6200
$Comp
L VCC #PWR041
U 1 1 58F8400B
P 2100 6000
F 0 "#PWR041" H 2100 5850 50  0001 C CNN
F 1 "VCC" H 2100 6150 50  0000 C CNN
F 2 "" H 2100 6000 50  0000 C CNN
F 3 "" H 2100 6000 50  0000 C CNN
	1    2100 6000
	1    0    0    -1  
$EndComp
Wire Wire Line
	4300 5000 4850 5000
Wire Wire Line
	4300 4600 4300 4700
Wire Wire Line
	4300 4700 4350 4700
Wire Wire Line
	2650 6500 2650 6600
Wire Wire Line
	2650 6600 2600 6600
Wire Wire Line
	4300 6500 4500 6500
Wire Wire Line
	4300 6600 5700 6600
Wire Wire Line
	2250 6650 2250 6700
Wire Wire Line
	2250 6700 2650 6700
Wire Wire Line
	3500 5800 3500 5850
$Comp
L GND #PWR042
U 1 1 58F84021
P 4300 4250
F 0 "#PWR042" H 4300 4000 50  0001 C CNN
F 1 "GND" H 4300 4100 50  0000 C CNN
F 2 "" H 4300 4250 50  0000 C CNN
F 3 "" H 4300 4250 50  0000 C CNN
	1    4300 4250
	-1   0    0    1   
$EndComp
Wire Wire Line
	4300 4300 4300 4250
$Comp
L GND #PWR043
U 1 1 58F84028
P 2650 6950
F 0 "#PWR043" H 2650 6700 50  0001 C CNN
F 1 "GND" H 2650 6800 50  0000 C CNN
F 2 "" H 2650 6950 50  0000 C CNN
F 3 "" H 2650 6950 50  0000 C CNN
	1    2650 6950
	1    0    0    -1  
$EndComp
Wire Wire Line
	2650 6900 2650 6950
$Comp
L VCC #PWR044
U 1 1 58F8402F
P 4850 4800
F 0 "#PWR044" H 4850 4650 50  0001 C CNN
F 1 "VCC" H 4850 4950 50  0000 C CNN
F 2 "" H 4850 4800 50  0000 C CNN
F 3 "" H 4850 4800 50  0000 C CNN
	1    4850 4800
	1    0    0    -1  
$EndComp
Text Label 2700 1950 2    60   ~ 0
VPWRA1
Text Label 4350 1950 0    60   ~ 0
VPWRA1
Text Label 4350 1250 0    60   ~ 0
VPWRA1
Text Label 2700 3650 2    60   ~ 0
VPWRB1
Text Label 4350 3750 0    60   ~ 0
VPWRB1
Text Label 4350 2950 0    60   ~ 0
VPWRB1
$Comp
L +3V3 #PWR045
U 1 1 58F57A5C
P 10200 3500
F 0 "#PWR045" H 10200 3350 50  0001 C CNN
F 1 "+3V3" H 10200 3640 50  0000 C CNN
F 2 "" H 10200 3500 50  0000 C CNN
F 3 "" H 10200 3500 50  0000 C CNN
	1    10200 3500
	1    0    0    -1  
$EndComp
Wire Wire Line
	10000 3550 10200 3550
Wire Wire Line
	10200 3550 10200 3500
Wire Wire Line
	10000 3650 10400 3650
Wire Wire Line
	10400 3650 10400 3500
$Comp
L +5V #PWR046
U 1 1 58F57CD2
P 10400 3500
F 0 "#PWR046" H 10400 3350 50  0001 C CNN
F 1 "+5V" H 10400 3640 50  0000 C CNN
F 2 "" H 10400 3500 50  0000 C CNN
F 3 "" H 10400 3500 50  0000 C CNN
	1    10400 3500
	1    0    0    -1  
$EndComp
Wire Wire Line
	7700 2900 8500 2900
Connection ~ 8000 2900
Connection ~ 8100 2900
Connection ~ 8200 2900
Connection ~ 8300 2900
Connection ~ 8400 2900
Wire Wire Line
	7700 2900 7700 2950
Connection ~ 7900 2900
$Comp
L GND #PWR047
U 1 1 58F580C3
P 7700 2950
F 0 "#PWR047" H 7700 2700 50  0001 C CNN
F 1 "GND" H 7700 2800 50  0000 C CNN
F 2 "" H 7700 2950 50  0000 C CNN
F 3 "" H 7700 2950 50  0000 C CNN
	1    7700 2950
	-1   0    0    -1  
$EndComp
$Comp
L GND #PWR048
U 1 1 58F58143
P 10000 2850
F 0 "#PWR048" H 10000 2600 50  0001 C CNN
F 1 "GND" H 10000 2700 50  0000 C CNN
F 2 "" H 10000 2850 50  0000 C CNN
F 3 "" H 10000 2850 50  0000 C CNN
	1    10000 2850
	-1   0    0    -1  
$EndComp
$Comp
L R_Small R13
U 1 1 58F581C3
P 9850 2800
F 0 "R13" H 9880 2820 50  0000 L CNN
F 1 "10k" H 9880 2760 50  0000 L CNN
F 2 "Resistors_SMD:R_0603" H 9850 2800 50  0001 C CNN
F 3 "" H 9850 2800 50  0000 C CNN
	1    9850 2800
	0    1    -1   0   
$EndComp
Wire Wire Line
	9700 2900 9700 2800
Wire Wire Line
	9700 2800 9750 2800
Wire Wire Line
	9950 2800 10000 2800
Wire Wire Line
	10000 2800 10000 2850
Text Label 7600 3550 2    60   ~ 0
IN12
Text Label 10000 4950 0    60   ~ 0
IN11
Text Label 8400 5750 3    60   ~ 0
PWM_H_BRIDGE1
Text Label 10000 950  0    60   ~ 0
RC1
Text Label 10000 1550 0    60   ~ 0
RC2
Text Label 10000 1350 0    60   ~ 0
RC3
Text Label 10000 1150 0    60   ~ 0
RC4
Text Label 10000 1050 0    60   ~ 0
RC5
Text Label 10000 1250 0    60   ~ 0
RC6
Text Label 10000 1450 0    60   ~ 0
RC7
Text Label 10000 1650 0    60   ~ 0
RC8
Text Label 7600 4150 2    60   ~ 0
FBB1
Text Label 7600 5050 2    60   ~ 0
FBA1
Text Label 7600 4450 2    60   ~ 0
PWM_H_BRIDGE2
Text Label 9100 5750 3    60   ~ 0
IN21
Text Label 7600 3850 2    60   ~ 0
IN22
Text Label 9300 5750 3    60   ~ 0
FBA2
Text Label 9600 5750 3    60   ~ 0
FBB2
Connection ~ 1250 2200
Connection ~ 1200 5350
Text Label 7600 3450 2    60   ~ 0
step
$Comp
L CONN_01X02 P11
U 1 1 58F9C3EB
P 6100 3400
F 0 "P11" H 6100 3550 50  0000 C CNN
F 1 "FBB1" V 6200 3400 50  0000 C CNN
F 2 "warsztaty:GS2a" H 6100 3400 50  0001 C CNN
F 3 "" H 6100 3400 50  0000 C CNN
	1    6100 3400
	1    0    0    -1  
$EndComp
$Comp
L CONN_01X02 P9
U 1 1 58F9CD8D
P 1150 1400
F 0 "P9" H 1150 1550 50  0000 C CNN
F 1 "FBA1" V 1250 1400 50  0000 C CNN
F 2 "warsztaty:GS2a" H 1150 1400 50  0001 C CNN
F 3 "" H 1150 1400 50  0000 C CNN
	1    1150 1400
	-1   0    0    1   
$EndComp
$Comp
L CONN_01X02 P10
U 1 1 58F9D4DB
P 5900 6550
F 0 "P10" H 5900 6700 50  0000 C CNN
F 1 "FBB2" V 6000 6550 50  0000 C CNN
F 2 "warsztaty:GS2a" H 5900 6550 50  0001 C CNN
F 3 "" H 5900 6550 50  0000 C CNN
	1    5900 6550
	1    0    0    -1  
$EndComp
$Comp
L CONN_01X02 P8
U 1 1 58F9DCC6
P 950 4550
F 0 "P8" H 950 4700 50  0000 C CNN
F 1 "FBA2" V 1050 4550 50  0000 C CNN
F 2 "warsztaty:GS2a" H 950 4550 50  0001 C CNN
F 3 "" H 950 4550 50  0000 C CNN
	1    950  4550
	-1   0    0    1   
$EndComp
Text Label 1800 3500 2    60   ~ 0
encoder_1a
Text Label 1800 3400 2    60   ~ 0
encoder_1b
Text Label 1800 4000 2    60   ~ 0
encoder_2a
Text Label 1800 3900 2    60   ~ 0
encoder_2b
Text Label 1800 7000 2    60   ~ 0
encoder_3a
Text Label 1800 6900 2    60   ~ 0
encoder_3b
Text Label 1800 7450 2    60   ~ 0
encoder_4a
Text Label 1800 7550 2    60   ~ 0
encoder_4b
Text Label 10000 4150 0    60   ~ 0
dir
Text Label 8650 1900 0    60   ~ 0
USART4_RX
Text Label 8650 2000 0    60   ~ 0
USART4_TX
Text Label 8650 2100 0    60   ~ 0
USART5_RX
Text Label 8650 2200 0    60   ~ 0
USART5_TX
Text Label 7600 4250 2    60   ~ 0
encoder_1a
Text Label 7600 4350 2    60   ~ 0
encoder_1b
Text Label 7600 4950 2    60   ~ 0
encoder_2a
Text Label 7600 5250 2    60   ~ 0
encoder_2b
Text Label 8200 5750 3    60   ~ 0
encoder_3a
Text Label 8300 5750 3    60   ~ 0
encoder_3b
Text Label 10000 5250 0    60   ~ 0
encoder_4a
Text Label 10000 5150 0    60   ~ 0
encoder_4b
$Comp
L CONN_01X10 P7
U 1 1 58FAE37E
P 9800 1200
F 0 "P7" H 9800 1750 50  0000 C CNN
F 1 "RC" V 9900 1200 50  0000 C CNN
F 2 "Pin_Headers:Pin_Header_Straight_1x10_Pitch2.54mm" H 9800 1200 50  0001 C CNN
F 3 "" H 9800 1200 50  0000 C CNN
	1    9800 1200
	-1   0    0    -1  
$EndComp
$Comp
L GND #PWR049
U 1 1 58FB2A7D
P 10000 750
F 0 "#PWR049" H 10000 500 50  0001 C CNN
F 1 "GND" H 10000 600 50  0000 C CNN
F 2 "" H 10000 750 50  0000 C CNN
F 3 "" H 10000 750 50  0000 C CNN
	1    10000 750 
	0    -1   -1   0   
$EndComp
$Comp
L +5V #PWR050
U 1 1 58FB3517
P 10300 700
F 0 "#PWR050" H 10300 550 50  0001 C CNN
F 1 "+5V" H 10300 840 50  0000 C CNN
F 2 "" H 10300 700 50  0000 C CNN
F 3 "" H 10300 700 50  0000 C CNN
	1    10300 700 
	1    0    0    -1  
$EndComp
Wire Wire Line
	10000 850  10300 850 
Wire Wire Line
	10300 850  10300 700 
$Comp
L CONN_01X02 P14
U 1 1 58FB4745
P 1050 3700
F 0 "P14" H 1050 3850 50  0000 C CNN
F 1 "MOTOR1" V 1150 3700 50  0000 C CNN
F 2 "Terminal_Blocks:TerminalBlock_Pheonix_MKDS1.5-2pol" H 1050 3700 50  0001 C CNN
F 3 "" H 1050 3700 50  0000 C CNN
	1    1050 3700
	1    0    0    -1  
$EndComp
Text Label 850  3650 2    60   ~ 0
OUT11
Text Label 850  3750 2    60   ~ 0
OUT12
$Comp
L CONN_01X02 P17
U 1 1 58FB4B24
P 1050 7250
F 0 "P17" H 1050 7400 50  0000 C CNN
F 1 "MOTOR1" V 1150 7250 50  0000 C CNN
F 2 "Terminal_Blocks:TerminalBlock_Pheonix_MKDS1.5-2pol" H 1050 7250 50  0001 C CNN
F 3 "" H 1050 7250 50  0000 C CNN
	1    1050 7250
	1    0    0    -1  
$EndComp
Text Label 850  7200 2    60   ~ 0
OUT21
Text Label 850  7300 2    60   ~ 0
OUT22
$Comp
L CONN_01X04 P13
U 1 1 58FB5573
P 2000 3350
F 0 "P13" H 2000 3600 50  0000 C CNN
F 1 "encoder1" V 2100 3350 50  0000 C CNN
F 2 "Pin_Headers:Pin_Header_Straight_1x04_Pitch2.54mm" H 2000 3350 50  0001 C CNN
F 3 "" H 2000 3350 50  0000 C CNN
	1    2000 3350
	1    0    0    -1  
$EndComp
$Comp
L CONN_01X04 P15
U 1 1 58FB599D
P 2000 3850
F 0 "P15" H 2000 4100 50  0000 C CNN
F 1 "encoder2" V 2100 3850 50  0000 C CNN
F 2 "Pin_Headers:Pin_Header_Straight_1x04_Pitch2.54mm" H 2000 3850 50  0001 C CNN
F 3 "" H 2000 3850 50  0000 C CNN
	1    2000 3850
	1    0    0    -1  
$EndComp
$Comp
L CONN_01X04 P16
U 1 1 58FB5D16
P 2000 6850
F 0 "P16" H 2000 7100 50  0000 C CNN
F 1 "encoder3" V 2100 6850 50  0000 C CNN
F 2 "Pin_Headers:Pin_Header_Straight_1x04_Pitch2.54mm" H 2000 6850 50  0001 C CNN
F 3 "" H 2000 6850 50  0000 C CNN
	1    2000 6850
	1    0    0    -1  
$EndComp
$Comp
L CONN_01X04 P18
U 1 1 58FB5F90
P 2000 7400
F 0 "P18" H 2000 7650 50  0000 C CNN
F 1 "encoder4" V 2100 7400 50  0000 C CNN
F 2 "Pin_Headers:Pin_Header_Straight_1x04_Pitch2.54mm" H 2000 7400 50  0001 C CNN
F 3 "" H 2000 7400 50  0000 C CNN
	1    2000 7400
	1    0    0    -1  
$EndComp
$Comp
L +3V3 #PWR051
U 1 1 58FB7D55
P 1550 3200
F 0 "#PWR051" H 1550 3050 50  0001 C CNN
F 1 "+3V3" H 1550 3340 50  0000 C CNN
F 2 "" H 1550 3200 50  0000 C CNN
F 3 "" H 1550 3200 50  0000 C CNN
	1    1550 3200
	1    0    0    -1  
$EndComp
Wire Wire Line
	1550 3200 1550 3300
Wire Wire Line
	1550 3300 1800 3300
$Comp
L +3V3 #PWR052
U 1 1 58FB7EDC
P 1550 3700
F 0 "#PWR052" H 1550 3550 50  0001 C CNN
F 1 "+3V3" H 1550 3840 50  0000 C CNN
F 2 "" H 1550 3700 50  0000 C CNN
F 3 "" H 1550 3700 50  0000 C CNN
	1    1550 3700
	1    0    0    -1  
$EndComp
Wire Wire Line
	1550 3700 1550 3800
Wire Wire Line
	1550 3800 1800 3800
$Comp
L +3V3 #PWR053
U 1 1 58FB84A9
P 1500 6650
F 0 "#PWR053" H 1500 6500 50  0001 C CNN
F 1 "+3V3" H 1500 6790 50  0000 C CNN
F 2 "" H 1500 6650 50  0000 C CNN
F 3 "" H 1500 6650 50  0000 C CNN
	1    1500 6650
	1    0    0    -1  
$EndComp
Wire Wire Line
	1500 6650 1500 6800
Wire Wire Line
	1500 6800 1800 6800
$Comp
L +3V3 #PWR054
U 1 1 58FB890C
P 1500 7200
F 0 "#PWR054" H 1500 7050 50  0001 C CNN
F 1 "+3V3" H 1500 7340 50  0000 C CNN
F 2 "" H 1500 7200 50  0000 C CNN
F 3 "" H 1500 7200 50  0000 C CNN
	1    1500 7200
	1    0    0    -1  
$EndComp
Wire Wire Line
	1500 7200 1500 7350
Wire Wire Line
	1500 7350 1800 7350
$Comp
L GND #PWR055
U 1 1 58FB8ACE
P 1800 7250
F 0 "#PWR055" H 1800 7000 50  0001 C CNN
F 1 "GND" H 1800 7100 50  0000 C CNN
F 2 "" H 1800 7250 50  0000 C CNN
F 3 "" H 1800 7250 50  0000 C CNN
	1    1800 7250
	0    1    1    0   
$EndComp
$Comp
L GND #PWR056
U 1 1 58FB8B75
P 1800 6700
F 0 "#PWR056" H 1800 6450 50  0001 C CNN
F 1 "GND" H 1800 6550 50  0000 C CNN
F 2 "" H 1800 6700 50  0000 C CNN
F 3 "" H 1800 6700 50  0000 C CNN
	1    1800 6700
	0    1    1    0   
$EndComp
$Comp
L GND #PWR057
U 1 1 58FB9234
P 1800 3700
F 0 "#PWR057" H 1800 3450 50  0001 C CNN
F 1 "GND" H 1800 3550 50  0000 C CNN
F 2 "" H 1800 3700 50  0000 C CNN
F 3 "" H 1800 3700 50  0000 C CNN
	1    1800 3700
	0    1    1    0   
$EndComp
$Comp
L GND #PWR058
U 1 1 58FB954B
P 1800 3200
F 0 "#PWR058" H 1800 2950 50  0001 C CNN
F 1 "GND" H 1800 3050 50  0000 C CNN
F 2 "" H 1800 3200 50  0000 C CNN
F 3 "" H 1800 3200 50  0000 C CNN
	1    1800 3200
	0    1    1    0   
$EndComp
Text Label 10000 4850 0    60   ~ 0
USART4_TX
Text Label 10000 4750 0    60   ~ 0
USART4_RX
Text Label 10000 4650 0    60   ~ 0
USART5_TX
Text Label 10000 4250 0    60   ~ 0
USART5_RX
$Comp
L CONN_01X06 P12
U 1 1 58FBE516
P 8450 2150
F 0 "P12" H 8450 2500 50  0000 C CNN
F 1 "CONN_01X06" V 8550 2150 50  0000 C CNN
F 2 "Pin_Headers:Pin_Header_Straight_2x03_Pitch2.54mm" H 8450 2150 50  0001 C CNN
F 3 "" H 8450 2150 50  0000 C CNN
	1    8450 2150
	-1   0    0    -1  
$EndComp
$Comp
L GND #PWR059
U 1 1 58FBE95B
P 8700 2400
F 0 "#PWR059" H 8700 2150 50  0001 C CNN
F 1 "GND" H 8700 2250 50  0000 C CNN
F 2 "" H 8700 2400 50  0000 C CNN
F 3 "" H 8700 2400 50  0000 C CNN
	1    8700 2400
	1    0    0    -1  
$EndComp
Wire Wire Line
	8650 2400 8700 2400
$Comp
L VCC #PWR060
U 1 1 58FBF82B
P 6650 2450
F 0 "#PWR060" H 6650 2300 50  0001 C CNN
F 1 "VCC" H 6650 2600 50  0000 C CNN
F 2 "" H 6650 2450 50  0000 C CNN
F 3 "" H 6650 2450 50  0000 C CNN
	1    6650 2450
	1    0    0    -1  
$EndComp
$Comp
L GND #PWR061
U 1 1 58FBF8D5
P 6650 2650
F 0 "#PWR061" H 6650 2400 50  0001 C CNN
F 1 "GND" H 6650 2500 50  0000 C CNN
F 2 "" H 6650 2650 50  0000 C CNN
F 3 "" H 6650 2650 50  0000 C CNN
	1    6650 2650
	1    0    0    -1  
$EndComp
Text Label 7600 3650 2    60   ~ 0
RC1
Text Label 7600 4550 2    60   ~ 0
RC2
Text Label 7600 5150 2    60   ~ 0
RC3
Text Label 8000 5750 3    60   ~ 0
RC4
Text Label 8100 5750 3    60   ~ 0
RC5
Text Label 8600 5750 3    60   ~ 0
RC6
Text Label 8700 5750 3    60   ~ 0
RC7
Text Label 10000 5050 0    60   ~ 0
RC8
Wire Wire Line
	8650 2300 8700 2300
Wire Wire Line
	8700 2300 8700 2400
$Comp
L CONN_01X03 P19
U 1 1 58FC3650
P 6450 2550
F 0 "P19" H 6450 2750 50  0000 C CNN
F 1 "power" V 6550 2550 50  0000 C CNN
F 2 "Terminal_Blocks:TerminalBlock_Pheonix_MKDS1.5-3pol" H 6450 2550 50  0001 C CNN
F 3 "" H 6450 2550 50  0000 C CNN
	1    6450 2550
	-1   0    0    1   
$EndComp
$Comp
L +5V #PWR062
U 1 1 58FC4240
P 6850 2450
F 0 "#PWR062" H 6850 2300 50  0001 C CNN
F 1 "+5V" H 6850 2590 50  0000 C CNN
F 2 "" H 6850 2450 50  0000 C CNN
F 3 "" H 6850 2450 50  0000 C CNN
	1    6850 2450
	1    0    0    -1  
$EndComp
Wire Wire Line
	6650 2550 6850 2550
Wire Wire Line
	6850 2550 6850 2450
Text Label 9200 5750 3    60   ~ 0
ADC1
Text Label 9400 5750 3    60   ~ 0
ADC2
Text Label 9500 5750 3    60   ~ 0
ADC3
Text Label 7600 4050 2    60   ~ 0
ADC4
Text Label 9700 5750 3    60   ~ 0
ADC5
$Comp
L +5V #PWR?
U 1 1 58FC7A72
P 9400 2900
F 0 "#PWR?" H 9400 2750 50  0001 C CNN
F 1 "+5V" H 9400 3040 50  0000 C CNN
F 2 "" H 9400 2900 50  0000 C CNN
F 3 "" H 9400 2900 50  0000 C CNN
	1    9400 2900
	1    0    0    -1  
$EndComp
$EndSCHEMATC
