(module 2_duze_pola (layer F.Cu) (tedit 58EE9DA6)
  (fp_text reference P6 (at 1.8 -2.1) (layer F.SilkS)
    (effects (font (size 1 1) (thickness 0.15)))
  )
  (fp_text value MOTOR2 (at 0.5 2.3) (layer F.Fab)
    (effects (font (size 1 1) (thickness 0.15)))
  )
  (pad 1 smd rect (at 1.5 0) (size 2 2) (layers F.Cu F.Paste F.Mask))
  (pad 2 smd rect (at -1.5 0) (size 2 2) (layers F.Cu F.Paste F.Mask))
)
