^D:\DROPBOX\JOBABAMB\OPENGL FORM\GLWRAP\DEBUG\.NETFRAMEWORK,VERSION=V4.0.ASSEMBLYATTRIBUTES.OBJ|D:\DROPBOX\JOBABAMB\OPENGL FORM\GLWRAP\DEBUG\GLWRAP.OBJ|D:\DROPBOX\JOBABAMB\OPENGL FORM\GLWRAP\DEBUG\SCREEN.OBJ|D:\DROPBOX\JOBABAMB\OPENGL FORM\GLWRAP\GLFWDLL.LIB
/ERRORREPORT:PROMPT /OUT:"D:\Dropbox\JoBaBaMB\OpenGL form\Debug\GLwrap.dll" /INCREMENTAL /NOLOGO opengl32.lib glu32.lib /MANIFEST /ManifestFile:"Debug\GLwrap.dll.intermediate.manifest" /MANIFESTUAC:"level='asInvoker' uiAccess='false'" /DEBUG /PDB:"D:\Dropbox\JoBaBaMB\OpenGL form\Debug\GLwrap.pdb" /ASSEMBLYDEBUG /TLBID:1 /DYNAMICBASE /FIXED:NO /NXCOMPAT /MACHINE:X86 /DLL Debug\GLwrap.obj
Debug\Screen.obj
"Debug\.NETFramework,Version=v4.0.AssemblyAttributes.obj"
GLFWDLL.lib
