PCBNEW-LibModule-V1  
# encoding utf-8
Units mm
$INDEX
SOIC-54(SOICW-EP-54)
$EndINDEX
$MODULE SOIC-54(SOICW-EP-54)
Po 0 0 0 15 00000000 00000000 ~~
Li SOIC-54(SOICW-EP-54)
Cd MOSFET DRVR 0.8A 1-OUT Hi/Lo Sid Inv/Non-Inv 54-Pin SOIC W EP Rail
Sc 00000000
At SMD
Op 0 0 0
.SolderMask 0.1
.SolderPaste 0
T0 0 0 1 0.9 0 0.05 N H 21 "SOIC-54(SOICW-EP-54)"
T1 0 0 1 0.9 0 0.05 N H 21 "VAL**"
DS -3.8 8.9 3.8 8.9 0 24
DS 3.8 8.9 3.8 -9.1 0 24
DS 3.8 -9.1 -3.8 -9.1 0 24
DS -3.8 -9.1 -3.8 8.9 0 24
DP 0 0 0 0 4 0.381 24
Dl -3.797 -8.432
Dl -4.297 -8.432
Dl -4.297 -8.682
Dl -3.797 -8.682
DP 0 0 0 0 4 0.381 24
Dl -3.797 -7.781
Dl -4.297 -7.781
Dl -4.297 -8.031
Dl -3.797 -8.031
DP 0 0 0 0 4 0.381 24
Dl -3.797 -7.132
Dl -4.297 -7.132
Dl -4.297 -7.382
Dl -3.797 -7.382
DP 0 0 0 0 4 0.381 24
Dl -3.797 -6.481
Dl -4.297 -6.481
Dl -4.297 -6.731
Dl -3.797 -6.731
DP 0 0 0 0 4 0.381 24
Dl -3.797 -5.832
Dl -4.297 -5.832
Dl -4.297 -6.082
Dl -3.797 -6.082
DP 0 0 0 0 4 0.381 24
Dl -3.797 -5.181
Dl -4.297 -5.181
Dl -4.297 -5.431
Dl -3.797 -5.431
DP 0 0 0 0 4 0.381 24
Dl -3.797 -4.532
Dl -4.297 -4.532
Dl -4.297 -4.782
Dl -3.797 -4.782
DP 0 0 0 0 4 0.381 24
Dl -3.797 -3.881
Dl -4.297 -3.881
Dl -4.297 -4.131
Dl -3.797 -4.131
DP 0 0 0 0 4 0.381 24
Dl -3.797 -3.232
Dl -4.297 -3.232
Dl -4.297 -3.482
Dl -3.797 -3.482
DP 0 0 0 0 4 0.381 24
Dl -3.797 -2.581
Dl -4.297 -2.581
Dl -4.297 -2.831
Dl -3.797 -2.831
DP 0 0 0 0 4 0.381 24
Dl -3.797 -1.932
Dl -4.297 -1.932
Dl -4.297 -2.182
Dl -3.797 -2.182
DP 0 0 0 0 4 0.381 24
Dl -3.797 -1.281
Dl -4.297 -1.281
Dl -4.297 -1.531
Dl -3.797 -1.531
DP 0 0 0 0 4 0.381 24
Dl -3.797 -0.632
Dl -4.297 -0.632
Dl -4.297 -0.882
Dl -3.797 -0.882
DP 0 0 0 0 4 0.381 24
Dl -3.797 0.019
Dl -4.297 0.019
Dl -4.297 -0.231
Dl -3.797 -0.231
DP 0 0 0 0 4 0.381 24
Dl -3.797 0.668
Dl -4.297 0.668
Dl -4.297 0.418
Dl -3.797 0.418
DP 0 0 0 0 4 0.381 24
Dl -3.797 1.319
Dl -4.297 1.319
Dl -4.297 1.069
Dl -3.797 1.069
DP 0 0 0 0 4 0.381 24
Dl -3.797 1.968
Dl -4.297 1.968
Dl -4.297 1.718
Dl -3.797 1.718
DP 0 0 0 0 4 0.381 24
Dl -3.797 2.619
Dl -4.297 2.619
Dl -4.297 2.369
Dl -3.797 2.369
DP 0 0 0 0 4 0.381 24
Dl -3.797 3.268
Dl -4.297 3.268
Dl -4.297 3.018
Dl -3.797 3.018
DP 0 0 0 0 4 0.381 24
Dl -3.797 3.919
Dl -4.297 3.919
Dl -4.297 3.669
Dl -3.797 3.669
DP 0 0 0 0 4 0.381 24
Dl -3.797 4.568
Dl -4.297 4.568
Dl -4.297 4.318
Dl -3.797 4.318
DP 0 0 0 0 4 0.381 24
Dl -3.797 5.219
Dl -4.297 5.219
Dl -4.297 4.969
Dl -3.797 4.969
DP 0 0 0 0 4 0.381 24
Dl -3.797 5.868
Dl -4.297 5.868
Dl -4.297 5.618
Dl -3.797 5.618
DP 0 0 0 0 4 0.381 24
Dl -3.797 6.519
Dl -4.297 6.519
Dl -4.297 6.269
Dl -3.797 6.269
DP 0 0 0 0 4 0.381 24
Dl -3.797 7.168
Dl -4.297 7.168
Dl -4.297 6.918
Dl -3.797 6.918
DP 0 0 0 0 4 0.381 24
Dl -3.797 7.819
Dl -4.297 7.819
Dl -4.297 7.569
Dl -3.797 7.569
DP 0 0 0 0 4 0.381 24
Dl -3.797 8.468
Dl -4.297 8.468
Dl -4.297 8.218
Dl -3.797 8.218
DP 0 0 0 0 4 0.381 24
Dl 3.801 8.223
Dl 4.301 8.223
Dl 4.301 8.473
Dl 3.801 8.473
DP 0 0 0 0 4 0.381 24
Dl 3.801 7.572
Dl 4.301 7.572
Dl 4.301 7.822
Dl 3.801 7.822
DP 0 0 0 0 4 0.381 24
Dl 3.801 6.923
Dl 4.301 6.923
Dl 4.301 7.173
Dl 3.801 7.173
DP 0 0 0 0 4 0.381 24
Dl 3.801 6.272
Dl 4.301 6.272
Dl 4.301 6.522
Dl 3.801 6.522
DP 0 0 0 0 4 0.381 24
Dl 3.801 5.623
Dl 4.301 5.623
Dl 4.301 5.873
Dl 3.801 5.873
DP 0 0 0 0 4 0.381 24
Dl 3.801 4.972
Dl 4.301 4.972
Dl 4.301 5.222
Dl 3.801 5.222
DP 0 0 0 0 4 0.381 24
Dl 3.801 4.323
Dl 4.301 4.323
Dl 4.301 4.573
Dl 3.801 4.573
DP 0 0 0 0 4 0.381 24
Dl 3.801 3.672
Dl 4.301 3.672
Dl 4.301 3.922
Dl 3.801 3.922
DP 0 0 0 0 4 0.381 24
Dl 3.801 3.023
Dl 4.301 3.023
Dl 4.301 3.273
Dl 3.801 3.273
DP 0 0 0 0 4 0.381 24
Dl 3.801 2.372
Dl 4.301 2.372
Dl 4.301 2.622
Dl 3.801 2.622
DP 0 0 0 0 4 0.381 24
Dl 3.801 1.723
Dl 4.301 1.723
Dl 4.301 1.973
Dl 3.801 1.973
DP 0 0 0 0 4 0.381 24
Dl 3.801 1.072
Dl 4.301 1.072
Dl 4.301 1.322
Dl 3.801 1.322
DP 0 0 0 0 4 0.381 24
Dl 3.801 0.423
Dl 4.301 0.423
Dl 4.301 0.673
Dl 3.801 0.673
DP 0 0 0 0 4 0.381 24
Dl 3.801 -0.228
Dl 4.301 -0.228
Dl 4.301 0.022
Dl 3.801 0.022
DP 0 0 0 0 4 0.381 24
Dl 3.801 -0.877
Dl 4.301 -0.877
Dl 4.301 -0.627
Dl 3.801 -0.627
DP 0 0 0 0 4 0.381 24
Dl 3.801 -1.528
Dl 4.301 -1.528
Dl 4.301 -1.278
Dl 3.801 -1.278
DP 0 0 0 0 4 0.381 24
Dl 3.801 -2.177
Dl 4.301 -2.177
Dl 4.301 -1.927
Dl 3.801 -1.927
DP 0 0 0 0 4 0.381 24
Dl 3.801 -2.828
Dl 4.301 -2.828
Dl 4.301 -2.578
Dl 3.801 -2.578
DP 0 0 0 0 4 0.381 24
Dl 3.801 -3.477
Dl 4.301 -3.477
Dl 4.301 -3.227
Dl 3.801 -3.227
DP 0 0 0 0 4 0.381 24
Dl 3.801 -4.128
Dl 4.301 -4.128
Dl 4.301 -3.878
Dl 3.801 -3.878
DP 0 0 0 0 4 0.381 24
Dl 3.801 -4.777
Dl 4.301 -4.777
Dl 4.301 -4.527
Dl 3.801 -4.527
DP 0 0 0 0 4 0.381 24
Dl 3.801 -5.428
Dl 4.301 -5.428
Dl 4.301 -5.178
Dl 3.801 -5.178
DP 0 0 0 0 4 0.381 24
Dl 3.801 -6.077
Dl 4.301 -6.077
Dl 4.301 -5.827
Dl 3.801 -5.827
DP 0 0 0 0 4 0.381 24
Dl 3.801 -6.728
Dl 4.301 -6.728
Dl 4.301 -6.478
Dl 3.801 -6.478
DP 0 0 0 0 4 0.381 24
Dl 3.801 -7.377
Dl 4.301 -7.377
Dl 4.301 -7.127
Dl 3.801 -7.127
DP 0 0 0 0 4 0.381 24
Dl 3.801 -8.028
Dl 4.301 -8.028
Dl 4.301 -7.778
Dl 3.801 -7.778
DP 0 0 0 0 4 0.381 24
Dl 3.801 -8.677
Dl 4.301 -8.677
Dl 4.301 -8.427
Dl 3.801 -8.427
DC -3.1 -8.4 -2.77398 -8.4 0.127 24
$PAD
Sh "P$1" R 0.9 0.25 0 0 1800
At SMD N 00888000
.SolderMask 0.2
.SolderPaste 0
Ne 0 ""
Po -4.718 -8.557
$EndPAD
$PAD
Sh "P$2" R 0.9 0.25 0 0 1800
At SMD N 00888000
.SolderMask 0.2
.SolderPaste 0
Ne 0 ""
Po -4.718 -7.906
$EndPAD
$PAD
Sh "P$3" R 0.9 0.25 0 0 1800
At SMD N 00888000
.SolderMask 0.2
.SolderPaste 0
Ne 0 ""
Po -4.718 -7.257
$EndPAD
$PAD
Sh "P$4" R 0.9 0.25 0 0 1800
At SMD N 00888000
.SolderMask 0.2
.SolderPaste 0
Ne 0 ""
Po -4.718 -6.606
$EndPAD
$PAD
Sh "P$5" R 0.9 0.25 0 0 1800
At SMD N 00888000
.SolderMask 0.2
.SolderPaste 0
Ne 0 ""
Po -4.718 -5.957
$EndPAD
$PAD
Sh "P$6" R 0.9 0.25 0 0 1800
At SMD N 00888000
.SolderMask 0.2
.SolderPaste 0
Ne 0 ""
Po -4.718 -5.306
$EndPAD
$PAD
Sh "P$7" R 0.9 0.25 0 0 1800
At SMD N 00888000
.SolderMask 0.2
.SolderPaste 0
Ne 0 ""
Po -4.718 -4.657
$EndPAD
$PAD
Sh "P$8" R 0.9 0.25 0 0 1800
At SMD N 00888000
.SolderMask 0.2
.SolderPaste 0
Ne 0 ""
Po -4.718 -4.006
$EndPAD
$PAD
Sh "P$9" R 0.9 0.25 0 0 1800
At SMD N 00888000
.SolderMask 0.2
.SolderPaste 0
Ne 0 ""
Po -4.718 -3.357
$EndPAD
$PAD
Sh "P$10" R 0.9 0.25 0 0 1800
At SMD N 00888000
.SolderMask 0.2
.SolderPaste 0
Ne 0 ""
Po -4.718 -2.706
$EndPAD
$PAD
Sh "P$11" R 0.9 0.25 0 0 1800
At SMD N 00888000
.SolderMask 0.2
.SolderPaste 0
Ne 0 ""
Po -4.718 -2.057
$EndPAD
$PAD
Sh "P$12" R 0.9 0.25 0 0 1800
At SMD N 00888000
.SolderMask 0.2
.SolderPaste 0
Ne 0 ""
Po -4.718 -1.406
$EndPAD
$PAD
Sh "P$13" R 0.9 0.25 0 0 1800
At SMD N 00888000
.SolderMask 0.2
.SolderPaste 0
Ne 0 ""
Po -4.718 -0.757
$EndPAD
$PAD
Sh "P$14" R 0.9 0.25 0 0 1800
At SMD N 00888000
.SolderMask 0.2
.SolderPaste 0
Ne 0 ""
Po -4.718 -0.106
$EndPAD
$PAD
Sh "P$15" R 0.9 0.25 0 0 1800
At SMD N 00888000
.SolderMask 0.2
.SolderPaste 0
Ne 0 ""
Po -4.718 0.543
$EndPAD
$PAD
Sh "P$16" R 0.9 0.25 0 0 1800
At SMD N 00888000
.SolderMask 0.2
.SolderPaste 0
Ne 0 ""
Po -4.718 1.194
$EndPAD
$PAD
Sh "P$17" R 0.9 0.25 0 0 1800
At SMD N 00888000
.SolderMask 0.2
.SolderPaste 0
Ne 0 ""
Po -4.718 1.843
$EndPAD
$PAD
Sh "P$18" R 0.9 0.25 0 0 1800
At SMD N 00888000
.SolderMask 0.2
.SolderPaste 0
Ne 0 ""
Po -4.718 2.494
$EndPAD
$PAD
Sh "P$19" R 0.9 0.25 0 0 1800
At SMD N 00888000
.SolderMask 0.2
.SolderPaste 0
Ne 0 ""
Po -4.718 3.143
$EndPAD
$PAD
Sh "P$20" R 0.9 0.25 0 0 1800
At SMD N 00888000
.SolderMask 0.2
.SolderPaste 0
Ne 0 ""
Po -4.718 3.794
$EndPAD
$PAD
Sh "P$21" R 0.9 0.25 0 0 1800
At SMD N 00888000
.SolderMask 0.2
.SolderPaste 0
Ne 0 ""
Po -4.718 4.443
$EndPAD
$PAD
Sh "P$22" R 0.9 0.25 0 0 1800
At SMD N 00888000
.SolderMask 0.2
.SolderPaste 0
Ne 0 ""
Po -4.718 5.094
$EndPAD
$PAD
Sh "P$23" R 0.9 0.25 0 0 1800
At SMD N 00888000
.SolderMask 0.2
.SolderPaste 0
Ne 0 ""
Po -4.718 5.743
$EndPAD
$PAD
Sh "P$24" R 0.9 0.25 0 0 1800
At SMD N 00888000
.SolderMask 0.2
.SolderPaste 0
Ne 0 ""
Po -4.718 6.394
$EndPAD
$PAD
Sh "P$25" R 0.9 0.25 0 0 1800
At SMD N 00888000
.SolderMask 0.2
.SolderPaste 0
Ne 0 ""
Po -4.718 7.043
$EndPAD
$PAD
Sh "P$26" R 0.9 0.25 0 0 1800
At SMD N 00888000
.SolderMask 0.2
.SolderPaste 0
Ne 0 ""
Po -4.718 7.694
$EndPAD
$PAD
Sh "P$27" R 0.9 0.25 0 0 1800
At SMD N 00888000
.SolderMask 0.2
.SolderPaste 0
Ne 0 ""
Po -4.718 8.343
$EndPAD
$PAD
Sh "P$28" R 0.9 0.25 0 0 0
At SMD N 00888000
.SolderMask 0.2
.SolderPaste 0
Ne 0 ""
Po 4.722 8.348
$EndPAD
$PAD
Sh "P$29" R 0.9 0.25 0 0 0
At SMD N 00888000
.SolderMask 0.2
.SolderPaste 0
Ne 0 ""
Po 4.722 7.697
$EndPAD
$PAD
Sh "P$30" R 0.9 0.25 0 0 0
At SMD N 00888000
.SolderMask 0.2
.SolderPaste 0
Ne 0 ""
Po 4.722 7.048
$EndPAD
$PAD
Sh "P$31" R 0.9 0.25 0 0 0
At SMD N 00888000
.SolderMask 0.2
.SolderPaste 0
Ne 0 ""
Po 4.722 6.397
$EndPAD
$PAD
Sh "P$32" R 0.9 0.25 0 0 0
At SMD N 00888000
.SolderMask 0.2
.SolderPaste 0
Ne 0 ""
Po 4.722 5.748
$EndPAD
$PAD
Sh "P$33" R 0.9 0.25 0 0 0
At SMD N 00888000
.SolderMask 0.2
.SolderPaste 0
Ne 0 ""
Po 4.722 5.097
$EndPAD
$PAD
Sh "P$34" R 0.9 0.25 0 0 0
At SMD N 00888000
.SolderMask 0.2
.SolderPaste 0
Ne 0 ""
Po 4.722 4.448
$EndPAD
$PAD
Sh "P$35" R 0.9 0.25 0 0 0
At SMD N 00888000
.SolderMask 0.2
.SolderPaste 0
Ne 0 ""
Po 4.722 3.797
$EndPAD
$PAD
Sh "P$36" R 0.9 0.25 0 0 0
At SMD N 00888000
.SolderMask 0.2
.SolderPaste 0
Ne 0 ""
Po 4.722 3.148
$EndPAD
$PAD
Sh "P$37" R 0.9 0.25 0 0 0
At SMD N 00888000
.SolderMask 0.2
.SolderPaste 0
Ne 0 ""
Po 4.722 2.497
$EndPAD
$PAD
Sh "P$38" R 0.9 0.25 0 0 0
At SMD N 00888000
.SolderMask 0.2
.SolderPaste 0
Ne 0 ""
Po 4.722 1.848
$EndPAD
$PAD
Sh "P$39" R 0.9 0.25 0 0 0
At SMD N 00888000
.SolderMask 0.2
.SolderPaste 0
Ne 0 ""
Po 4.722 1.197
$EndPAD
$PAD
Sh "P$40" R 0.9 0.25 0 0 0
At SMD N 00888000
.SolderMask 0.2
.SolderPaste 0
Ne 0 ""
Po 4.722 0.548
$EndPAD
$PAD
Sh "P$41" R 0.9 0.25 0 0 0
At SMD N 00888000
.SolderMask 0.2
.SolderPaste 0
Ne 0 ""
Po 4.722 -0.103
$EndPAD
$PAD
Sh "P$42" R 0.9 0.25 0 0 0
At SMD N 00888000
.SolderMask 0.2
.SolderPaste 0
Ne 0 ""
Po 4.722 -0.752
$EndPAD
$PAD
Sh "P$43" R 0.9 0.25 0 0 0
At SMD N 00888000
.SolderMask 0.2
.SolderPaste 0
Ne 0 ""
Po 4.722 -1.403
$EndPAD
$PAD
Sh "P$44" R 0.9 0.25 0 0 0
At SMD N 00888000
.SolderMask 0.2
.SolderPaste 0
Ne 0 ""
Po 4.722 -2.052
$EndPAD
$PAD
Sh "P$45" R 0.9 0.25 0 0 0
At SMD N 00888000
.SolderMask 0.2
.SolderPaste 0
Ne 0 ""
Po 4.722 -2.703
$EndPAD
$PAD
Sh "P$46" R 0.9 0.25 0 0 0
At SMD N 00888000
.SolderMask 0.2
.SolderPaste 0
Ne 0 ""
Po 4.722 -3.352
$EndPAD
$PAD
Sh "P$47" R 0.9 0.25 0 0 0
At SMD N 00888000
.SolderMask 0.2
.SolderPaste 0
Ne 0 ""
Po 4.722 -4.003
$EndPAD
$PAD
Sh "P$48" R 0.9 0.25 0 0 0
At SMD N 00888000
.SolderMask 0.2
.SolderPaste 0
Ne 0 ""
Po 4.722 -4.652
$EndPAD
$PAD
Sh "P$49" R 0.9 0.25 0 0 0
At SMD N 00888000
.SolderMask 0.2
.SolderPaste 0
Ne 0 ""
Po 4.722 -5.303
$EndPAD
$PAD
Sh "P$50" R 0.9 0.25 0 0 0
At SMD N 00888000
.SolderMask 0.2
.SolderPaste 0
Ne 0 ""
Po 4.722 -5.952
$EndPAD
$PAD
Sh "P$51" R 0.9 0.25 0 0 0
At SMD N 00888000
.SolderMask 0.2
.SolderPaste 0
Ne 0 ""
Po 4.722 -6.603
$EndPAD
$PAD
Sh "P$52" R 0.9 0.25 0 0 0
At SMD N 00888000
.SolderMask 0.2
.SolderPaste 0
Ne 0 ""
Po 4.722 -7.252
$EndPAD
$PAD
Sh "P$53" R 0.9 0.25 0 0 0
At SMD N 00888000
.SolderMask 0.2
.SolderPaste 0
Ne 0 ""
Po 4.722 -7.903
$EndPAD
$PAD
Sh "P$54" R 0.9 0.25 0 0 0
At SMD N 00888000
.SolderMask 0.2
.SolderPaste 0
Ne 0 ""
Po 4.722 -8.552
$EndPAD
$PAD
Sh "P$55" R 6.6 4.83 0 0 900
At SMD N 00888000
.SolderMask 0.2
.SolderPaste 0
Ne 0 ""
Po 0 -0.1
$EndPAD
$EndMODULE SOIC-54(SOICW-EP-54)
